\relax 
\@writefile{toc}{\contentsline {section}{\numberline {1}Introduciton}{1}}
\@writefile{toc}{\contentsline {section}{\numberline {2}Allure des donn\IeC {\'e}es du probl\IeC {\`e}me}{1}}
\@writefile{lof}{\contentsline {figure}{\numberline {1}{\ignorespaces Titre commun}}{1}}
\newlabel{fig:somefiglabel}{{1}{1}}
